{
  "application": "npm_package_name",
  "version": "npm_package_version",
  "host": "0.0.0.0",
  "port": 8290,
  "paginate": {
    "default": 5000,
    "max": 5000
  },
  "status": {
    "ready": "NOT-STARTED"
  },
  "authentication": {
    "entity": "user",
    "service": "users",
    "secret": "the-lpgroup-default",
    "apiKeySecret": "@LPgroup",
    "authStrategies": ["jwt", "local", "device", "apiKey"],
    "jwtOptions": {
      "header": {
        "typ": "access"
      },
      "audience": "https://carcosa.se",
      "issuer": "feathers-example",
      "algorithm": "HS256",
      "expiresIn": "1d"
    },
    "local": {
      "usernameField": "email",
      "passwordField": "password"
    }
  },
  "tooManyRequest": {
    "isEnabled": true,
    "buketSize": 85,
    "ttlSec": 2,
    "whiteList": ["127.0.0.2"]
  },
  "mongodb-disabled": "mongodb+srv://casianojrfernandez:testing321@cluster0.pw2qb.mongodb.net/feathers-example-ng-dev",
  "mongodb": "mongodb://mongo1:27017,mongo2:27018,mongo3:27019/feathers-example-ng-dev",
  "nats": {
    "name": "feathers-example-ng-dev",
    "uri": "nats://localhost:4222",
    "queue": "feathers-example-ng-dev",
    "messagePrefix": "dev",
    "version": "v3"
  },
  "apiDomain": "http://localhost:8290",
  "webDomain": "http://localhost:8290"
}
